2020-07-18 15:32:37 [95.141.37.166][-][-][warning][yii\debug\Module::checkAccess] Access to debugger is denied due to IP address restriction. The requesting IP address is 95.141.37.166
2020-07-18 15:32:37 [95.141.37.166][-][-][info][application] $_GET = []

$_POST = []

$_FILES = []

$_COOKIE = []

$_SERVER = [
    'REDIRECT_STATUS' => '200'
    'HTTP_ACCEPT' => 'application/json'
    'CONTENT_TYPE' => 'application/json'
    'CONTENT_LENGTH' => '23'
    'HTTP_HOST' => 'pisio.etfbl.net'
    'HTTP_CONNECTION' => 'Keep-Alive'
    'HTTP_ACCEPT_ENCODING' => 'gzip'
    'HTTP_USER_AGENT' => 'okhttp/3.12.1'
    'PATH' => '/usr/local/sbin:/usr/local/bin:/usr/sbin:/usr/bin:/sbin:/bin'
    'SERVER_SIGNATURE' => '<address>Apache/2.4.29 (Ubuntu) Server at pisio.etfbl.net Port 80</address>
'
    'SERVER_SOFTWARE' => 'Apache/2.4.29 (Ubuntu)'
    'SERVER_NAME' => 'pisio.etfbl.net'
    'SERVER_ADDR' => '78.28.135.60'
    'SERVER_PORT' => '80'
    'REMOTE_ADDR' => '95.141.37.166'
    'DOCUMENT_ROOT' => '/var/www/html'
    'REQUEST_SCHEME' => 'http'
    'CONTEXT_PREFIX' => '/~bojanp'
    'CONTEXT_DOCUMENT_ROOT' => '/home/bojanp/www'
    'SERVER_ADMIN' => 'webmaster@etfbl.net'
    'SCRIPT_FILENAME' => '/home/bojanp/www/up1/index.php'
    'REMOTE_PORT' => '42664'
    'REDIRECT_URL' => '/~bojanp/up1/workerrest/project/'
    'GATEWAY_INTERFACE' => 'CGI/1.1'
    'SERVER_PROTOCOL' => 'HTTP/1.1'
    'REQUEST_METHOD' => 'POST'
    'QUERY_STRING' => ''
    'REQUEST_URI' => '/~bojanp/up1/workerrest/project/'
    'SCRIPT_NAME' => '/~bojanp/up1/index.php'
    'PHP_SELF' => '/~bojanp/up1/index.php'
    'REQUEST_TIME_FLOAT' => 1595086357.072
    'REQUEST_TIME' => 1595086357
]
